8_bit_ALU/RCA4_tb.vcd
$date
	Thu May 14 12:07:23 2020
$end
$version
	Icarus Verilog
$end
$timescale
	1s
$end
$scope module RCA4_tb $end
$scope module RCA01 $end
$var wire 4 ! A [3:0] $end
$var wire 4 " B [3:0] $end
$var wire 1 # Cin $end
$var wire 4 $ w [3:0] $end
$var wire 4 % Sum [3:0] $end
$var wire 1 & Cout $end
$scope module FA0 $end
$var wire 1 ' A $end
$var wire 1 ( B $end
$var wire 1 # Cin $end
$var wire 1 ) Cout $end
$var wire 1 * Sum $end
$var wire 1 + w1 $end
$var wire 1 , w2 $end
$var wire 1 - w3 $end
$var wire 1 . w4 $end
$upscope $end
$scope module FA1 $end
$var wire 1 / A $end
$var wire 1 0 B $end
$var wire 1 1 Cin $end
$var wire 1 2 Cout $end
$var wire 1 3 Sum $end
$var wire 1 4 w1 $end
$var wire 1 5 w2 $end
$var wire 1 6 w3 $end
$var wire 1 7 w4 $end
$upscope $end
$scope module FA2 $end
$var wire 1 8 A $end
$var wire 1 9 B $end
$var wire 1 : Cin $end
$var wire 1 ; Cout $end
$var wire 1 < Sum $end
$var wire 1 = w1 $end
$var wire 1 > w2 $end
$var wire 1 ? w3 $end
$var wire 1 @ w4 $end
$upscope $end
$scope module FA3 $end
$var wire 1 A A $end
$var wire 1 B B $end
$var wire 1 C Cin $end
$var wire 1 & Cout $end
$var wire 1 D Sum $end
$var wire 1 E w1 $end
$var wire 1 F w2 $end
$var wire 1 G w3 $end
$var wire 1 H w4 $end
$upscope $end
$upscope $end
$upscope $end
$enddefinitions $end
#0
$dumpvars
0H
0G
0F
0E
1D
1C
0B
0A
1@
0?
0>
1=
0<
1;
1:
19
08
07
06
15
04
03
12
01
10
1/
0.
0-
0,
1+
1*
0)
0(
1'
0&
b1001 %
bz110 $
0#
b110 "
b11 !
$end
#50
0D
0C
0;
1<
0:
bz000 $
02
1&
0@
0H
0+
05
0?
1F
0G
b101 %
1*
00
09
1B
0'
0/
18
1A
1#
b1000 "
b1100 !
#100
13
0<
1D
0&
1+
14
0=
1E
0F
b1011 %
1*
1(
1/
08
0A
0#
b1001 "
b10 !
#150
1<
1?
1@
1:
12
03
17
1C
11
1D
1;
bz111 $
1)
0E
0+
1,
1>
b1101 %
1*
1-
1.
10
19
0B
1'
0/
18
1#
b111 "
b101 !
#200
0<
0D
1&
1=
0>
0@
1E
1H
b0 %
0*
0-
0.
09
1B
0#
b1011 "
#250
0&
1D
0H
0C
0;
1<
0:
13
bz001 $
02
1+
0,
04
07
0@
0?
b1110 %
0*
1-
0(
00
19
08
1#
b1100 "
b1 !
#300
1C
1;
0<
1?
1:
1D
bz111 $
12
0+
1,
17
0E
15
16
b1010 %
0*
0-
1(
10
09
0B
1/
18
0#
b11 "
b111 !
#350
0C
0;
1<
0:
02
07
01
bz000 $
0)
13
1D
0&
0@
0,
14
05
06
0?
1E
0G
b1111 %
1*
0(
19
0'
0/
08
1A
1#
b110 "
b1000 !
