8_bit_ALU/RCA8_tb.vcd
$date
	Thu May 14 22:33:26 2020
$end
$version
	Icarus Verilog
$end
$timescale
	1s
$end
$scope module RCA8_tb $end
$scope module RCA01 $end
$var wire 8 ! A [7:0] $end
$var wire 8 " B [7:0] $end
$var wire 1 # Cin $end
$var wire 8 $ w [7:0] $end
$var wire 8 % Sum [7:0] $end
$var wire 1 & Cout $end
$scope module FA0 $end
$var wire 1 ' A $end
$var wire 1 ( B $end
$var wire 1 # Cin $end
$var wire 1 ) Cout $end
$var wire 1 * Sum $end
$var wire 1 + w1 $end
$var wire 1 , w2 $end
$var wire 1 - w3 $end
$var wire 1 . w4 $end
$upscope $end
$scope module FA1 $end
$var wire 1 / A $end
$var wire 1 0 B $end
$var wire 1 1 Cin $end
$var wire 1 2 Cout $end
$var wire 1 3 Sum $end
$var wire 1 4 w1 $end
$var wire 1 5 w2 $end
$var wire 1 6 w3 $end
$var wire 1 7 w4 $end
$upscope $end
$scope module FA2 $end
$var wire 1 8 A $end
$var wire 1 9 B $end
$var wire 1 : Cin $end
$var wire 1 ; Cout $end
$var wire 1 < Sum $end
$var wire 1 = w1 $end
$var wire 1 > w2 $end
$var wire 1 ? w3 $end
$var wire 1 @ w4 $end
$upscope $end
$scope module FA3 $end
$var wire 1 A A $end
$var wire 1 B B $end
$var wire 1 C Cin $end
$var wire 1 D Cout $end
$var wire 1 E Sum $end
$var wire 1 F w1 $end
$var wire 1 G w2 $end
$var wire 1 H w3 $end
$var wire 1 I w4 $end
$upscope $end
$scope module FA4 $end
$var wire 1 J A $end
$var wire 1 K B $end
$var wire 1 L Cin $end
$var wire 1 M Cout $end
$var wire 1 N Sum $end
$var wire 1 O w1 $end
$var wire 1 P w2 $end
$var wire 1 Q w3 $end
$var wire 1 R w4 $end
$upscope $end
$scope module FA5 $end
$var wire 1 S A $end
$var wire 1 T B $end
$var wire 1 U Cin $end
$var wire 1 V Cout $end
$var wire 1 W Sum $end
$var wire 1 X w1 $end
$var wire 1 Y w2 $end
$var wire 1 Z w3 $end
$var wire 1 [ w4 $end
$upscope $end
$scope module FA6 $end
$var wire 1 \ A $end
$var wire 1 ] B $end
$var wire 1 ^ Cin $end
$var wire 1 _ Cout $end
$var wire 1 ` Sum $end
$var wire 1 a w1 $end
$var wire 1 b w2 $end
$var wire 1 c w3 $end
$var wire 1 d w4 $end
$upscope $end
$scope module FA7 $end
$var wire 1 e A $end
$var wire 1 f B $end
$var wire 1 g Cin $end
$var wire 1 & Cout $end
$var wire 1 h Sum $end
$var wire 1 i w1 $end
$var wire 1 j w2 $end
$var wire 1 k w3 $end
$var wire 1 l w4 $end
$upscope $end
$upscope $end
$upscope $end
$enddefinitions $end
#0
$dumpvars
0l
0k
0j
0i
0h
0g
0f
0e
0d
0c
0b
0a
0`
0_
0^
0]
0\
0[
0Z
0Y
0X
0W
0V
0U
0T
0S
0R
0Q
0P
0O
0N
0M
0L
0K
0J
0I
0H
0G
0F
1E
0D
1C
0B
0A
1@
0?
0>
1=
0<
1;
1:
19
08
07
06
15
04
03
12
01
10
1/
0.
0-
0,
1+
1*
0)
0(
1'
0&
b1001 %
bz0000110 $
0#
b110 "
b11 !
$end
#50
0E
0C
0;
1<
1N
0:
1L
02
bz0001000 $
1D
0@
0I
0+
05
0?
1G
0H
b10101 %
1*
00
09
1B
0'
0/
18
1A
1#
b1000 "
b1100 !
#100
0N
0L
13
0<
1E
bz0000000 $
0D
1+
14
0=
1F
0G
b1011 %
1*
1(
1/
08
0A
0#
b1001 "
b10 !
#150
1<
1?
1@
1:
12
03
17
1C
11
1E
1;
bz0000111 $
1)
0F
0+
1,
1>
b1101 %
1*
1-
1.
10
19
0B
1'
0/
18
1#
b111 "
b101 !
#200
1N
1L
0<
0E
bz0001111 $
1D
1=
0>
0@
1F
1I
b10000 %
0*
0-
0.
09
1B
0#
b1011 "
#250
0N
0L
0D
1E
0I
0C
0;
1<
0:
13
bz0000001 $
02
1+
0,
04
07
0@
0?
b1110 %
0*
1-
0(
00
19
08
1#
b1100 "
b1 !
#300
1C
1;
0<
1?
1:
1E
bz0000111 $
12
0+
1,
17
0F
15
16
b1010 %
0*
0-
1(
10
09
0B
1/
18
0#
b11 "
b111 !
#350
0C
0;
1<
0:
02
07
0N
01
0L
0)
13
1E
bz0000000 $
0D
0@
0,
14
05
06
0?
1F
0H
b1111 %
1*
0(
19
0'
0/
08
1A
1#
b110 "
b1000 !
